12:50:30.975 	 Debug 	 Startup.configure 
12:50:40.570 	 Debug 	 Getting contacts 
12:50:42.299 	 Debug 	 Getting contacts 
12:51:01.002 	 Debug 	 Start delete contact. 
12:51:01.220 	 Information 	 Contact deleted. Contact id:44 
12:51:01.221 	 Debug 	 Deleted contact:
id:44
Name:Some name
Phone:+75556664422
Email:name@mail.ru
Birthday:1994-06-16 
12:51:15.782 	 Debug 	 Start update contact. 
12:51:15.829 	 Information 	 Contact changed. Contact id:43 
12:51:15.830 	 Debug 	 Contact after change:
id:43
Name:We are del this contact
Phone:+90001112233
Email:contacter@gmail.com
Birthday:2009-01-14 
12:51:19.792 	 Debug 	 Start delete contact. 
12:51:19.805 	 Information 	 Contact deleted. Contact id:43 
12:51:19.806 	 Debug 	 Deleted contact:
id:43
Name:We are del this contact
Phone:+90001112233
Email:contacter@gmail.com
Birthday:2009-01-14 
